Action|Parameter|Parameter Type|Tooltip
canvas-color-manage|| | [False]
canvas-color-mode|| | [False]
canvas-command-palette|| | []
canvas-commands-bar|| | [True]
canvas-display-mode|| i| [0]
canvas-display-mode-cycle|| | []
canvas-display-mode-toggle|| | []
canvas-flip-horizontal|| | []
canvas-flip-reset|| | []
canvas-flip-vertical|| | []
canvas-interface-mode|| | [True]
canvas-palette|| | [True]
canvas-rotate-ccw|| | []
canvas-rotate-cw|| | []
canvas-rotate-lock|| | [True]
canvas-rotate-reset|| | []
canvas-rulers|| | [True]
canvas-scroll-bars|| | [True]
canvas-show-grid|| | [False]
canvas-snap-controls-bar|| | [True]
canvas-split-mode|| i| [0]
canvas-statusbar|| | [True]
canvas-tool-control-bar|| | [True]
canvas-toolbox|| | [True]
canvas-zoom-1-1|| | []
canvas-zoom-1-2|| | []
canvas-zoom-2-1|| | []
canvas-zoom-center-page|| | []
canvas-zoom-drawing|| | []
canvas-zoom-in|| | []
canvas-zoom-next|| | []
canvas-zoom-out|| | []
canvas-zoom-page|| | []
canvas-zoom-page-width|| | []
canvas-zoom-prev|| | []
canvas-zoom-selection|| | []
dialog-open|| s| []
dialog-toggle|| | []
document-cleanup|| | []
document-close|| | []
document-dialog-templates|| | []
document-import|| | []
document-new|| | []
document-open|| | []
document-print|| | []
document-revert|| | []
document-save|| | []
document-save-as|| | []
document-save-copy|| | []
document-save-template|| | []
help-url-ask-question|| | []
help-url-donate|| | []
help-url-faq|| | []
help-url-keys|| | []
help-url-man|| | []
help-url-manual|| | []
help-url-release-notes|| | []
help-url-report-bug|| | []
help-url-svg11-spec|| | []
help-url-svg2-spec|| | []
layer-bottom|| | []
layer-delete|| | []
layer-duplicate|| | []
layer-from-group|| | []
layer-hide-all|| | []
layer-hide-toggle|| | []
layer-hide-toggle-others|| | []
layer-lock-all|| | []
layer-lock-toggle|| | []
layer-lock-toggle-others|| | []
layer-lower|| | []
layer-new|| | []
layer-next|| | []
layer-previous|| | []
layer-raise|| | []
layer-rename|| | []
layer-to-group|| | []
layer-top|| | []
layer-unhide-all|| | []
layer-unlock-all|| | []
node-align-horizontal|| s| []
node-align-vertical|| s| []
node-distribute-horizontal|| | []
node-distribute-vertical|| | []
paste|| | []
paste-in-place|| | []
path-effect-parameter-next|| | []
path-inset|| | []
path-inset-screen|| d| []
path-offset|| | []
path-offset-dynamic|| | []
path-offset-linked|| | []
path-offset-screen|| d| []
path-reverse|| | []
select-all|| | []
select-all-layers|| | []
select-invert|| | []
select-none|| | []
select-same-fill|| | []
select-same-fill-and-stroke|| | []
select-same-object-type|| | []
select-same-stroke-color|| | []
select-same-stroke-style|| | []
selection-group-enter|| | []
selection-group-exit|| | []
selection-move-to-layer|| | []
selection-move-to-layer-above|| | []
selection-move-to-layer-below|| | []
simple-snap-alignment|| | [True]
simple-snap-bbox|| | [True]
simple-snap-nodes|| | [True]
snap-alignment|| | [True]
snap-alignment-self|| | [False]
snap-bbox|| | [True]
snap-bbox-center|| | [False]
snap-bbox-corner|| | [True]
snap-bbox-edge|| | [True]
snap-bbox-edge-midpoint|| | [False]
snap-distribution|| | [True]
snap-global-toggle|| | [False]
snap-grid|| | [True]
snap-guide|| | [True]
snap-line-midpoint|| | [True]
snap-line-perpendicular|| | [False]
snap-line-tangential|| | [False]
snap-node-category|| | [True]
snap-node-cusp|| | [True]
snap-node-smooth|| | [True]
snap-object-midpoint|| | [False]
snap-others|| | [True]
snap-page-border|| | [True]
snap-path|| | [True]
snap-path-clip|| | [True]
snap-path-intersection|| | [False]
snap-path-mask|| | [True]
snap-rotation-center|| | [False]
snap-text-baseline|| | [True]
tool-switch|| s| [Select]
tool-toggle|| | []
view-focus-toggle|| | []
view-full-screen-focus|| | []
view-fullscreen|| | []
window-new|| | []
window-next|| | []
window-previous|| | []
